Gender Inequities through an Economic Lens – Kara Niewoehner Projects
…
fulltime_ratio

# A tibble: 100 × 3
    Year sex                   ratio
   <dbl> <chr>                 <dbl>
 1  2017 female_fulltime_ratio 0.630
 2  2017 male_fulltime_ratio   0.753
 3  2016 female_fulltime_ratio 0.621
 4  2016 male_fulltime_ratio   0.747
 5  2015 female_fulltime_ratio 0.613
 6  2015 male_fulltime_ratio   0.739
 7  2014 female_fulltime_ratio 0.611
 8  2014 male_fulltime_ratio   0.739
 9  2013 female_fulltime_ratio 0.596
10  2013 male_fulltime_ratio   0.730
# ℹ 90 more rows
…
From observing the data from my first data set on male and female workers, it can be determined that we are on trend towards true equity between the sexes as the gap between total male and female workers and full-time to total workers for male and female workers narrows. Next, I want to demonstrate how augmenting female workers ability to work and work full-time affects equity among all households. I will do this by transforming my column-wise data for household income brackets to row-wise data, so I can have percentage values for each year for each income bracket.

finalCleanData2 <- cleanData2 |>
  pivot_longer(
    cols = c("<15000" : ">200000"), 
    names_to  = "income_bracket", 
    values_to = "percentage"
    ) |>
   filter(!is.na(percentage)) |>
   select(Year, income_bracket, percentage)

finalCleanData2

# A tibble: 459 × 3
    Year income_bracket percentage
   <dbl> <chr>               <dbl>
 1  2017 <15000               10.7
 2  2017 15000_24999           9.6
 3  2017 25000_34999           9.2
 4  2017 35000_49999          12.3
 5  2017 50000_74999          16.5
 6  2017 75000_99999          12.5
 7  2017 100000_149999        14.5
 8  2017 150000_199999         7  
 9  2017 >200000               7.7
10  2016 <15000               11  
# ℹ 449 more rows
…
